{
  "name" : "BankDB",
  "description" : "Queries for BankDB",
  "queries" : [ {
    "name" : "AccountQuery",
    "query" : "SELECT *FROM ACCOUNT",
    "comment" : "This query is used to fetch the account details",
    "description" : null,
    "nativeSql" : true,
    "returnsSingleResult" : false,
    "update" : false,
    "queryParams" : [ ],
    "outputType" : "BankDBAccountQueryrtnType",
    "returnTypeMetadata" : {
      "BALANCE" : "java.lang.Integer",
      "ID" : "java.lang.Integer",
      "NAME" : "java.lang.String"
    }
  } ]
}